{
  "iab": [
    {
      "category": "Technology & Computing",
      "id": "26",
      "relevance": 0.99
    },
    {
      "category": "Technology & Computing|Consumer Electronics|Smartphones",
      "id": "26.4.3",
      "relevance": 0.99
    },
    {
      "category": "Business & Finance",
      "id": "3",
      "relevance": 0.99
    },
    {
      "category": "Business & Finance|Business|Sales",
      "id": "3.1.14",
      "relevance": 0.9547552667158916
    }
  ],
  "key": "textrazorNlpText^^playlistExtensionFlow^^https://www.theinquirer.net/inquirer/news/2475805/iphone-x-apple-might-restart-production-in-certain-markets^^article^^"
}