{
  "key": "textrazorNlpText^^playlistExtensionFlow^^https://chicago.suntimes.com/entertainment/ron-cephas-jones-this-is-us-holiday-calendar-netflix-steppenwolf/^^article^^",
  "text": "Christmas movie brings cheer to 'This Is Us' actor Ron Cephas JonesChristmas movie brings cheer to 'This Is Us' actor Ron Cephas Jones\nThere were the down years when he was riding the bus. Then for four years, he drove the bus.\n\n“This Is Us” actor Ron Cephas Jones had his hit-the-wall moments and thought about quitting acting.\n\n“I’ve always had this hustle in my heart, so I couldn’t stop,” said the actor, who has found success in his 60s with an Emmy win for his work on hit NBC series.\n\nAnd just like his “This Is Us” character, the late William Hill, Jones, he has a little life philosophy to share.\n\n“There is always a way to make some money,” he said. “When you come to an age where you’re comfortable with yourself, you come to understand what life really is. … It’s not about money or other things. It’s about following your dreams.”\n\nWinning the Emmy and the Screen Actors Guild were amazing experiences, but the day when he knew he’d made it happened at a Los Angeles grocery store.\n\nRon Cephas Jones poses with his Emmy after the Creative Arts Awards ceremony in September. | Alberto E. Rodriguez/Getty Images\n\n\nHe turned around because he heard the lady in the cart behind him sniffing. “When I faced her, I could see she had tears rolling down her cheeks. She asked, ‘Can I just hug you?’ Then she told me about her mother who recently passed away from cancer.”\n\n“Those are the moments,” said the man whose character, Randall Pearson’s biological father, died of cancer. “The sweet moments.”\n\nJones, 61, is on the phone today to talk about another family drama, his new Netflix holiday film, “The Holiday Calendar” debuting Friday. The movie revolves around a struggling photographer who inherits an antique holiday advent calendar that has magical powers and can predict the future. He plays the wise and wonderful Gramps.\n\n“I do love Christmas movies. I have a daughter I raised on Christmas movies who at age 29 still watches them with me,” Jones said.\n\nRon Cephas Jones stars with Kat Graham in “The Holiday Calendar.” | Netflix\n\n\nAn accomplished stage actor, he spent several months in 2013 in Chicago, playing a role in Tarell Alvin McCraney’s “Head of Passes” at Steppenwolf Theatre.\n\n“I had such a memorable experience in Chicago because the play was so good. The writing was fantastic,” he said. “What a joy to work with Steppenwolf.”\n\nSome of his stay was during the winter, but still got the opportunity to check out the city. “Oh, I made sure to check out the soul food restaurants, and I took a picture with the Ernie Banks statue. I’m such a jazz aficionado, but I didn’t get a chance to check out too many of the clubs. I did drive around the South Side.\n\n“What I loved about Chicago was staying in and studying my lines. I made home meals and had people to my place for dinner,” he said. “I do want to get back to Chicago when the weather is nice. I’d love to go back and work with Steppenwolf again. They’re top-shelf. They also treat their actors so well.”\n\nIn 2013, Ron Cephas Jones (second from left) co-starred in “Head of Passes” at Steppenwolf Theatre with Tim Hopper (from left), James T. Alfred, Cheryl Lynn Bruce, Jacqueline Williams and Glenn Davis. | MICHAEL BROSILOW\n\n\nThe idea of acting was a given for Jones, who grew up loving theater and movies in his native Paterson, New Jersey. After graduation from Ramapo College, he decided to bus it to Los Angeles to start his career. One day while making the rounds to audition, he was on the bus and saw they were hiring. “I drove a bus from 1980 to 1984 while trying to start my acting career. I was such a New Yorker at heart. I missed it and came back to the East Coast,” he said.\n\nHe said his Emmy win this year for guest actor on a drama series was “a bit surreal. I was with one of my best friends that night. I heard my name, but I didn’t really hear it. My friend had to hit me with his elbow, and then I went up to accept.”\n\nHe also treasures his wife, British jazz singer Kim Lesley, and their actress daughter Jasmine Cephas Jones, from “Blindspotting” and the original cast of “Hamilton.”\n\n“I gotta tell you, I can talk for hours about her. She’s my pride and joy,” he said.\n\nDid she give her dad some “Hamilton” tickets? He laughed. “Absolutely, and my wife went three or four times.”\n\nHe does not give her “This Is Us” secrets, but shared a few here. Jones promises that this season he will appear during flashbacks “in five or maybe six episodes. You’ll definitely see me in the Thanksgiving and Christmas episodes.”\n\nShould we break out the Kleenex? “Oh, we’ll pull on your heartstrings. The writing, the way those stories are connected, the beautiful way the show touches on the human side of it. No matter who you are or what age you are … we all have those feelings. So, I’d say there is a 99.9 percent chance you will need those tissues.”\n",
  "entities": [
    {
      "value": "Audition",
      "types": [
        "/music/music_video_subject",
        "/film/film_subject"
      ]
    },
    {
      "value": "Jasmine Cephas Jones",
      "types": [
        "/music/group_member",
        "/film/actor",
        "/people/person"
      ]
    },
    {
      "value": "Tarell Alvin McCraney",
      "types": [
        "/award/award_nominee",
        "/theater/theater_director",
        "/people/person",
        "/award/award_winner",
        "/book/author"
      ]
    },
    {
      "value": "Hamilton (musical)",
      "types": [
        
      ]
    },
    {
      "value": "This Is Us (TV series)",
      "types": [
        "/tv/tv_program",
        "/award/award_nominated_work",
        "/award/award_winning_work"
      ]
    },
    {
      "value": "Ron Cephas Jones",
      "types": [
        "/film/actor",
        "/people/person",
        "/theater/theater_actor",
        "/award/award_winner"
      ]
    },
    {
      "value": "Christmas",
      "types": [
        "/film/film_genre",
        "/media_common/quotation_subject",
        "/music/music_video_subject",
        "/book/book_subject",
        "/film/film_subject",
        "/business/industry",
        "/broadcast/genre",
        "/time/holiday",
        "/media_common/media_genre",
        "/tv/tv_subject"
      ]
    }
  ],
  "labels": [
    "Ron_Cephas_Jones",
    "Christmas",
    "Entertainment",
    "Performing_arts",
    "The_New_Yorker",
    "Jasmine_Cephas_Jones",
    "NBC",
    "This_Is_Us_(TV_series)",
    "Steppenwolf_Theatre_Company",
    "This_Is_Us",
    "Actor",
    "Hamilton",
    "Culture",
    "Netflix",
    "Tarell_Alvin_McCraney",
    "Chicago",
    "Audition",
    "Television_episodes",
    "Hamilton_(musical)",
    "Creative_works",
    "Television_programs",
    "Series",
    "Television_series",
    "American_television_series",
    "Television",
    "Jazz",
    "Drama",
    "Theatre",
    "Emmy_Award",
    "Fiction"
  ],
  "persons": {
    "Ron Cephas Jones": true,
    "Tim Hopper": true,
    "Kim Lesley": false,
    "Randall Pearson": false,
    "Alberto E. Rodriguez": false,
    "Jasmine Cephas Jones": true,
    "Ernie Banks": true,
    "Jacqueline Williams": false,
    "Cheryl Lynn": true,
    "Glenn Davis (halfback)": true,
    "Tarell Alvin McCraney": true,
    "MICHAEL BROSILOW": false,
    "Kat Graham": true,
    "James T. Alfred": false
  }
}