{
  "iab": [
    {
      "category": "Business and Finance",
      "id": "3",
      "relevance": 0.8890546553230301
    },
    {
      "category": "Style & Fashion",
      "id": "25",
      "relevance": 0.7820426785594127
    },
    {
      "category": "Business and Finance|Economy",
      "id": "3.2",
      "relevance": 0.5992317286418375
    },
    {
      "category": "Pop Culture",
      "id": "19",
      "relevance": 0.5267370805705354
    }
  ],
  "key": "textrazorNlpText^^playlistExtensionFlow^^https://www.businessinsider.com/meghan-markle-fashion-influence-compared-to-kate-middleton-2018-1^^article^^"
}
