{
  "key": "textrazorNlpText^^playlistExtensionFlow^^https://www.eurosport.co.uk/alpine-skiing/pyeongchang/2018/aksel-lund-svindal-wins-gold-for-norway-in-men-s-downhill_sto6620170/story.shtml^^article^^",
  "text": "Aksel Lund Svindal wins gold for Norway in men's DownhillAksel Lund Svindal wins gold for Norway in men's Downhill\nSvindal, 35, was seventh out the gate and crossed the line with the fastest time of one minute and 40.25 seconds.\n\nCompatriot Kjetil Jansrud finished second, earning Norway the first one-two in the event in 30 years.\n\nItaly's Dominik Paris set the lead early from the third run but was soon overtaken by Switzerland's Beat Feuz, who was pushed back into bronze medal position by the Norwegian skiers.\n\nSvindal, a five-time World Champion, was slow out of the gates but his speed picked up on the bottom half of the course to post the winning time.\n\nHe nervously watched on as his close friend Jansrud produced a storming run of his own, but the 32-year-old was two tenths of a second short of snatching the top prize.\n\nSvindal's Downhill success is the first time Norway have won gold in the event since 1948.\n",
  "entities": [
    {
      "value": "Beat Feuz",
      "types": [
        "/olympics/olympic_athlete",
        "/sports/pro_athlete",
        "/people/measured_person",
        "/people/person"
      ]
    },
    {
      "value": "Kjetil Jansrud",
      "types": [
        "/olympics/olympic_athlete",
        "/people/measured_person",
        "/sports/pro_athlete",
        "/people/person"
      ]
    },
    {
      "value": "Downhill (ski competition)",
      "types": [
        
      ]
    },
    {
      "value": "Dominik Paris",
      "types": [
        "/olympics/olympic_athlete",
        "/sports/pro_athlete",
        "/people/measured_person",
        "/people/person"
      ]
    },
    {
      "value": "Aksel Lund Svindal",
      "types": [
        "/olympics/olympic_athlete",
        "/sports/pro_athlete",
        "/people/measured_person",
        "/people/person"
      ]
    }
  ],
  "labels": [
    "Olympic_alpine_skiers",
    "Olympics_people",
    "Skiing_world_competitions",
    "South_Korea_at_the_Olympics",
    "Olympic_medalists_for_Norway",
    "Winter_Olympics_medalists",
    "International_sports_competitions_hosted",
    "Beat_Feuz",
    "Sports_events",
    "Nations_at_the_Olympics",
    "FIS_Alpine_Ski_World_Cup",
    "Norwegian_alpine_skiers",
    "Winter_multi-sport_events",
    "Winter_Olympics_competitors_for_Switzerland",
    "Alpine_skiing_at_multi-sport_events",
    "Swiss_male_alpine_skiers",
    "Alpine_skiing_at_the_Winter_Olympics",
    "Skiing_competitions",
    "Italy_at_the_Olympics",
    "Winter_sports_competitions",
    "Racing",
    "Canada_at_the_Olympics",
    "Sports",
    "Kjetil_Jansrud",
    "Olympic_alpine_skiers_of_Norway",
    "Sportspeople",
    "International_sports_competitions",
    "Norway_at_multi-sport_events",
    "Winter_Olympics_competitors_for_Italy",
    "Bronze_medalists_at_international_sports_competitions",
    "Gold_medalists_at_international_sports_competitions",
    "Olympic_silver_medalists_for_Norway",
    "Male_alpine_skiers",
    "Norwegian_male_skiers",
    "Individual_sports",
    "Norway_at_the_Olympics",
    "World_cups",
    "Olympic_gold_medalists",
    "Sports_at_the_Winter_Olympics",
    "Olympic_bronze_medalists",
    "Olympic_silver_medalists_for_Switzerland",
    "Norwegian_sportspeople",
    "Olympic_Games",
    "National_sports_teams_of_Norway",
    "Olympic_alpine_skiers_of_Switzerland",
    "Gangneung",
    "Olympic_medals",
    "Olympic_silver_medalists",
    "Olympic_competitors",
    "Alpine_skiing_competitions",
    "Italian_male_skiers",
    "Downhill_(ski_competition)",
    "Alpine_skiing",
    "Winter_Olympics_competitors_for_Norway",
    "Olympic_alpine_skiers_of_Italy",
    "Sport_variants",
    "Dominik_Paris",
    "Winter_sports",
    "International_Ski_Federation_competitions",
    "Norway_at_the_Winter_Olympics",
    "European_sportspeople",
    "Alpine_skiers",
    "Olympic_gold_medalists_for_Norway",
    "Competitors_at_multi-sport_events",
    "Nations_at_the_Winter_Olympics",
    "Winter_Olympics",
    "Sports_competitions",
    "Italian_alpine_skiers",
    "Silver_medalists_at_international_sports_competitions",
    "Skiing_at_the_Winter_Olympics",
    "Norwegian_male_alpine_skiers",
    "Skiing",
    "FIS_Alpine_Ski_World_Cup_champions",
    "Olympic_bronze_medalists_for_Norway",
    "Downhill",
    "Norwegian_sportsmen",
    "Norway",
    "International_Ski_Federation",
    "Olympic_medalists",
    "Winter_Olympics_events",
    "Swiss_alpine_skiers",
    "Aksel_Lund_Svindal",
    "Medalists_at_multi-sport_events",
    "Italian_male_alpine_skiers",
    "Winter_Olympic_Games",
    "February_sporting_events",
    "Sportsmen"
  ],
  "persons": {
    "Beat Feuz": false,
    "Aksel Lund Svindal": false,
    "Dominik Paris": false,
    "Kjetil Jansrud": false
  }
}