{
  "key": "textrazorNlpText^^playlistExtensionFlow^^https://www.washingtonpost.com/lifestyle/kidspost/storm-reid-felt-an-instant-connection-to-wrinkle-in-time-character/2018/03/05/b5778b4a-1e3b-11e8-9de1-147dd2df3829_story.html?noredirect=on&utm_term=.2dc1fbfa86a9^^article^^",
  "text": "Storm Reid felt an instant bond with ‘Wrinkle in Time’ characterStorm Reid felt an instant bond with ‘Wrinkle in Time’ character\nIn “A Wrinkle in Time,” Storm Reid plays Meg Murry, a misunderstood middle-schooler who, along with her friend Calvin (Levi Miller), goes on an interplanetary ad­ven­ture. (Photo by Atsushi Nishijima/Walt Disney Pictures) \n  Storm Reid loved Meg Murry, the main character of “A Wrinkle in Time,” for years before she was cast to play her in Disney’s adaptation of the award-winning children’s book.\n The ninth-grader first read Madeleine L’Engle’s 1962 science-fiction classic when she was in the sixth grade. Storm says she felt an immediate connection with Meg, a brilliant but misunderstood middle-schooler who goes on an adventure across time and space.\n “She’s such a peculiar character, and I wanted to know more about her. And I thought it was so amazing that she couldn’t realize how beautiful and smart and gracious she was, but everyone around her saw it,” the 14-year-old actress told KidsPost. “It took her a trip around the universe to notice that.”\n Like Meg, Storm loves and excels in science and math. But she doesn’t think readers or viewers have to like those subjects to understand the character.\n “I relate to Meg so much, and other teenagers and kids relate to her, because we are all trying to figure things out,” Storm explained. “We all might have things in our lives that are stopping us, but Meg shows all of us that we can overcome our challenges and we can live out our dreams.”\n  VIDEOWalt Disney Pictures\n \n So by the time, in eighth grade, that Storm tried out for the role of Meg for director Ava DuVernay, she was very familiar with and eager for the part. But landing the dream role seemed nearly impossible.\n “It was nerve-racking auditioning, because I felt so invested in the role, and I didn’t think I was going to book it,” Storm said. “But I went into it trying to be myself, letting go and doing my best.”\n Storm said that her “best thankfully paid off.” Storm also said that she recognizes the importance of a nonwhite girl playing Meg, who is white in the original book and in previous screen adaptations of the story. In DuVernay’s version, however, Meg is biracial: Her father, Dr. Alex Murry, is played by Chris Pine, and her mother, Dr. Kate Murry, is played by Gugu Mbatha-Raw.\n “I am a girl of color, and Meg wasn’t written that way originally, so for me to be able to portray that and represent girls who look like me and let them know they can do anything and empower them is very special,” she said.\n On the six-month movie shoot, Storm had the opportunity to work with some of the most influential women in Hollywood, in addition to DuVernay. Co-stars Oprah Winfrey, Reese Witherspoon and Mindy Kaling play three supernatural beings — Mrs. Which, Mrs. Whatsit and Mrs. Who — who guide Meg, her genius little brother, Charles Wallace, and her friend Calvin on an interplanetary journey to find her missing father, a famous scientist.\n    Storm Reid as Meg, Deric McCabe as Charles Wallace and Reese Witherspoon as Mrs. Whatsit, one of the supernatural beings the siblings meet on their journey. (Photo by Atsushi Nishijima/Walt Disney Pictures) \n Ultimately, the legendary Winfrey (a billionaire media boss, actress and philanthropist) gave Storm a piece of advice she says she’ll remember forever.\n “She told me, ‘Don’t waste energy on things you can’t change in your life, when you could be using that energy on ­something else positive in your life.’ I took that, and it’s the best advice I’ve ever been given,” Storm said. “It’s become my life motto.”\n",
  "entities": [
    {
      "value": "A Wrinkle in Time",
      "types": [
        "/award/award_nominated_work",
        "/fictional_universe/work_of_fiction",
        "/book/written_work",
        "/media_common/adapted_work",
        "/award/award_winning_work",
        "/book/book"
      ]
    },
    {
      "value": "Oprah Winfrey",
      "types": [
        "/tv/tv_producer",
        "/film/actor",
        "/people/person",
        "/award/award_winner",
        "/award/award_nominee",
        "/symbols/name_source",
        "/film/person_or_entity_appearing_in_film",
        "/tv/tv_personality",
        "/book/author",
        "/organization/organization_founder",
        "/celebrities/celebrity",
        "/tv/tv_actor",
        "/influence/influence_node",
        "/fictional_universe/person_in_fiction",
        "/internet/social_network_user",
        "/book/book_subject",
        "/theater/theater_producer",
        "/film/producer",
        "/tv/tv_program_guest",
        "/book/periodical_editor",
        "/award/hall_of_fame_inductee",
        "/tv/tv_program_creator",
        "/business/board_member",
        "/award/ranked_item",
        "/people/measured_person"
      ]
    },
    {
      "value": "Meg Murry",
      "types": [
        "/book/book_character",
        "/film/film_character",
        "/fictional_universe/fictional_character"
      ]
    },
    {
      "value": "Wrinkle",
      "types": [
        "/medicine/symptom"
      ]
    },
    {
      "value": "The Walt Disney Company",
      "types": [
        "/book/periodical_publisher",
        "/film/production_company",
        "/exhibitions/exhibition_sponsor",
        "/business/employer",
        "/cvg/cvg_publisher",
        "/organization/organization",
        "/award/award_winner",
        "/award/award_nominee",
        "/symbols/name_source",
        "/travel/hotel_operator",
        "/broadcast/tv_station_owner",
        "/fictional_universe/fictional_character_creator",
        "/architecture/architectural_structure_owner",
        "/broadcast/radio_station_owner",
        "/book/author",
        "/organization/organization_founder",
        "/business/issuer",
        "/book/book_subject",
        "/business/consumer_company",
        "/cvg/cvg_developer",
        "/business/customer",
        "/business/business_operation",
        "/fictional_universe/fictional_universe_creator",
        "/business/asset_owner",
        "/internet/website_owner",
        "/media_common/netflix_genre",
        "/award/ranked_item",
        "/music/producer"
      ]
    },
    {
      "value": "Meg Griffin",
      "types": [
        "/cvg/game_character",
        "/tv/tv_character",
        "/film/film_character",
        "/fictional_universe/fictional_character"
      ]
    },
    {
      "value": "Storm Reid",
      "types": [
        "/award/award_nominee",
        "/film/actor",
        "/people/person"
      ]
    },
    {
      "value": "Gugu Mbatha-Raw",
      "types": [
        "/award/award_nominee",
        "/tv/tv_actor",
        "/film/actor",
        "/people/person"
      ]
    },
    {
      "value": "Reese Witherspoon",
      "types": [
        "/music/artist",
        "/celebrities/celebrity",
        "/tv/tv_actor",
        "/influence/influence_node",
        "/film/producer",
        "/film/actor",
        "/tv/tv_program_guest",
        "/people/person",
        "/award/award_winner",
        "/music/featured_artist",
        "/award/award_nominee",
        "/film/person_or_entity_appearing_in_film",
        "/people/measured_person",
        "/award/ranked_item"
      ]
    }
  ],
  "labels": [
    "Reese_Witherspoon",
    "Cinema_of_the_United_States",
    "Literature",
    "Entertainment",
    "Meg_Griffin",
    "The_Walt_Disney_Company",
    "Creative_works",
    "Oprah_Winfrey",
    "Gugu_Mbatha-Raw",
    "Storm_Reid",
    "A_Wrinkle_in_Time",
    "Fiction",
    "Meg_Murry"
  ],
  "persons": {
    "Walt Disney": true,
    "Storm Reid": true,
    "Mindy Kaling": true,
    "Kate Murry": false,
    "Deric McCabe": true,
    "Reese Witherspoon": true,
    "Gugu Mbatha-Raw": true,
    "Levi Miller": true,
    "Calvin": false,
    "Charles Wallace": false,
    "Atsushi Nishijima": false,
    "Alex Murry": false,
    "Chris Pine": true,
    "Madeleine L'Engle": false,
    "Whatsit": false,
    "Oprah Winfrey": true,
    "Ava DuVernay": true
  }
}