{
  "key": "https://www.ynetnews.com/articles/0,7340,L-5416611,00.html",
  "text": "Quentin Tarantino marries Israeli singer Daniella Pick\nQuentin Tarantino marries Israeli singer Daniella Pick\nFilm director Quentin Tarantino, 55, and Israeli singer Daniella Pick, 35, tied the knot on Wednesday evening in an private ceremony in Los Angeles.\n\nThe wedding took place at the couple’s mansion in Beverly Hills and was attended by close friends and relatives.\n\nThe bride is the daughter of famous Israeli pop singer and composer Tzvika Pick—who couldn’t attend the wedding due to medical issues—and songwriter Mirit Shem-Or—who also attended her daughter’s bachelorette party at the Peninsula Beverly Hills Hotel.\n\nThe couple decided to exchange vows under a Jewish chuppah in the presence of a Reform rabbi, with the \"Pulp Fiction\" director donning a kippah for the occasion.\n\nPick decided to endorse Israeli designer Dana Harel by wearing two of her dresses over the course of the night. Pick's headband was also designed for her by Israeli designer Keren Wolf.\n\nAfter the ceremony, the guests made their way to Mr. Chow's in Beverly Hills for the reception.\n\nA source who attended the event told E! News that the ceremony was so intimate that only 20 people were in attendance.\n\n\"Among the guests were actors Harvey Keitel and Tim Roth, as well as director Eli Roth … The newlyweds held hands and kissed at every opportunity,\" the source said.\n\nTarantino and Pick got engaged last July after after dating on and off for nearly a decade. The couple first met back in 2009, when the director visited Israel while promoting his film \"Inglourious Basterds.\"\n\nTwo weeks later the two were seen together on the red carpet in Los Angeles, holding hands and effectively confirming their transatlantic relationship.",
  "entities": [
    {
      "value": "Bride",
      "types": [
        "/book/book_subject"
      ]
    },
    {
      "value": "Eli Roth",
      "types": [
        "/tv/tv_actor",
        "/influence/influence_node",
        "/internet/social_network_user",
        "/film/writer",
        "/film/actor",
        "/film/producer",
        "/people/person",
        "/film/director",
        "/award/award_winner",
        "/award/award_nominee",
        "/film/film_story_contributor",
        "/film/person_or_entity_appearing_in_film",
        "/tv/tv_personality",
        "/book/author"
      ]
    },
    {
      "value": "Bachelorette party",
      "types": [
        
      ]
    },
    {
      "value": "Svika Pick",
      "types": [
        "/music/artist",
        "/tv/tv_actor",
        "/music/writer",
        "/music/group_member",
        "/film/actor",
        "/music/composer",
        "/people/person",
        "/tv/tv_personality"
      ]
    },
    {
      "value": "Israel",
      "types": [
        "/exhibitions/exhibition_subject",
        "/religion/religious_leadership_jurisdiction",
        "/biology/breed_origin",
        "/sports/sports_team_location",
        "/tv/tv_location",
        "/law/court_jurisdiction_area",
        "/location/dated_location",
        "/periodicals/newspaper_circulation_area",
        "/organization/organization_member",
        "/symbols/flag_referent",
        "/location/administrative_division",
        "/media_common/quotation",
        "/military/military_combatant",
        "/travel/travel_destination",
        "/sports/sport_country",
        "/projects/project_focus",
        "/food/beer_country_region",
        "/book/book_subject",
        "/location/location",
        "/location/country",
        "/location/statistical_region",
        "/olympics/olympic_participating_country",
        "/travel/accommodation_feature",
        "/media_common/netflix_genre",
        "/organization/organization_scope",
        "/film/film_location",
        "/government/governmental_jurisdiction"
      ]
    },
    {
      "value": "Tim Roth",
      "types": [
        "/award/award_nominee",
        "/music/artist",
        "/tv/tv_actor",
        "/film/person_or_entity_appearing_in_film",
        "/influence/influence_node",
        "/book/book_subject",
        "/film/actor",
        "/tv/tv_program_guest",
        "/people/person",
        "/film/director",
        "/tv/tv_personality",
        "/award/award_winner"
      ]
    },
    {
      "value": "Harvey Keitel",
      "types": [
        "/award/award_nominee",
        "/music/artist",
        "/tv/tv_actor",
        "/film/person_or_entity_appearing_in_film",
        "/influence/influence_node",
        "/film/producer",
        "/film/actor",
        "/people/person",
        "/theater/theater_actor",
        "/award/award_winner"
      ]
    },
    {
      "value": "Inglourious Basterds",
      "types": [
        "/film/film",
        "/award/award_nominated_work",
        "/award/award_winning_work",
        "/media_common/adaptation",
        "/award/ranked_item",
        "/media_common/netflix_title"
      ]
    },
    {
      "value": "Kippah",
      "types": [
        "/fashion/garment",
        "/business/product_category"
      ]
    },
    {
      "value": "Chuppah",
      "types": [
        
      ]
    },
    {
      "value": "Quentin Tarantino",
      "types": [
        "/music/artist",
        "/film/actor",
        "/tv/tv_writer",
        "/people/person",
        "/award/award_winner",
        "/music/featured_artist",
        "/media_common/dedicator",
        "/award/award_nominee",
        "/film/film_story_contributor",
        "/film/person_or_entity_appearing_in_film",
        "/fictional_universe/fictional_character_creator",
        "/music/lyricist",
        "/book/author",
        "/tv/tv_director",
        "/film/editor",
        "/organization/organization_founder",
        "/celebrities/celebrity",
        "/tv/tv_actor",
        "/influence/influence_node",
        "/fictional_universe/person_in_fiction",
        "/film/writer",
        "/book/book_subject",
        "/film/producer",
        "/tv/tv_program_guest",
        "/film/director",
        "/film/cinematographer",
        "/people/measured_person"
      ]
    },
    {
      "value": "Singing",
      "types": [
        "/award/competition_type",
        "/fictional_universe/character_powers",
        "/music/genre",
        "/people/profession",
        "/book/book_subject",
        "/people/professional_field",
        "/film/film_subject",
        "/music/performance_role",
        "/medicine/risk_factor",
        "/education/field_of_study",
        "/music/instrument"
      ]
    },
    {
      "value": "Pulp Fiction",
      "types": [
        "/film/film",
        "/award/award_nominated_work",
        "/award/award_winning_work",
        "/award/ranked_item",
        "/media_common/netflix_title"
      ]
    }
  ],
  "labels": [
    "Social_conventions",
    "Tim_Roth",
    "Eli_Roth",
    "Social_institutions",
    "Harvey_Keitel",
    "Pulp_Fiction",
    "Kippah",
    "Svika_Pick",
    "Quentin_Tarantino",
    "Rituals",
    "Intimate_relationships",
    "Beverly_Hills,_California",
    "Marriage",
    "Socialization",
    "Culture",
    "Ceremonies",
    "Religion",
    "Chuppah",
    "Jews_and_Judaism",
    "Bachelorette_party",
    "Bride",
    "Rites_of_passage",
    "Wedding",
    "Duos",
    "Judaism",
    "Family",
    "Fashion-related_occasions",
    "Israel",
    "Inglourious_Basterds",
    "Social_events",
    "Organized_events"
  ],
  "persons": {
    "Keren Wolf": false,
    "Tim Roth": true,
    "Mirit Shem-Or": false,
    "Eli Roth": true,
    "Harvey Keitel": true,
    "Quentin Tarantino": true,
    "Svika Pick": true,
    "Dana Harel": false
  }
}