{
  "key": "textrazorNlpText^^playlistExtensionFlow^^http://www.eonline.com/news/914830/fergie-addresses-national-anthem-backlash-i-honestly-tried-my-best/1^^article^^",
  "entities": [
    {
      "value": "Roseanne Barr",
      "types": [
        "/music/artist",
        "/celebrities/celebrity",
        "/tv/tv_actor",
        "/influence/influence_node",
        "/tv/tv_producer",
        "/film/actor",
        "/tv/tv_writer",
        "/people/person",
        "/award/award_winner",
        "/tv/tv_program_creator",
        "/tv/tv_subject",
        "/award/award_nominee",
        "/film/person_or_entity_appearing_in_film",
        "/music/group_member",
        "/tv/tv_personality",
        "/book/author"
      ]
    },
    {
      "value": "The Star-Spangled Banner",
      "types": [
        "/music/arrangement",
        "/sports/fight_song",
        "/music/composition",
        "/government/national_anthem"
      ]
    },
    {
      "value": "NBA All-Star Game",
      "types": [
        "/award/recurring_competition",
        "/award/recurring_award_ceremony",
        "/time/recurring_event"
      ]
    },
    {
      "value": "Anthem",
      "types": [
        
      ]
    },
    {
      "value": "Fergie (singer)",
      "types": [
        "/music/artist",
        "/celebrities/celebrity",
        "/tv/tv_actor",
        "/internet/social_network_user",
        "/broadcast/artist",
        "/film/actor",
        "/music/composer",
        "/people/person",
        "/award/award_winner",
        "/music/featured_artist",
        "/award/award_nominee",
        "/film/person_or_entity_appearing_in_film",
        "/music/group_member",
        "/sports/sports_team_owner",
        "/people/measured_person",
        "/award/ranked_item",
        "/music/lyricist"
      ]
    }
  ],
  "labels": [
    "Entertainment",
    "Pop_music",
    "Performing_arts",
    "Fergie",
    "Music_industry",
    "Basketball",
    "Roseanne_Barr",
    "Vocal_music",
    "NBA_All-Star_Game",
    "Pop_songs",
    "Recorded_music",
    "Songs",
    "Mass_media",
    "American_musicians",
    "Music_media",
    "Draymond_Green",
    "Musical_compositions",
    "National_Basketball_Association",
    "American_music_articles_needing_attention",
    "The_Star-Spangled_Banner",
    "Fergie_(singer)",
    "Joel_Embiid",
    "Music",
    "Popular_music",
    "American_songs",
    "Contemporary_R&B"
  ],
  "persons": {
    "Jimmy Kimmel": true,
    "Roseanne Barr": true,
    "Draymond Green": false,
    "Fergie (singer)": true,
    "Joel Embiid": false,
    "Allen Berezovsky": false,
    "Chance the Rapper": true
  },
  "text": "Fergie Addresses National Anthem BacklashFergie Addresses National Anthem Backlash\nAllen Berezovsky/Getty  is addressing the backlash following her National Anthem performance at the NBA All-Star game last night.\nThe 42-year-old singer admitted she wanted to try something different for the special event, but today she realizes it didn't go over well with the general public.\nIn a statement to E! News, Fergie explained, \"I've always been honored and proud to perform the national anthem, and last night I wanted to try something special for the NBA.\"\nShe continued, \"I'm a risk taker artistically, but clearly this rendition didn't strike the intended tone. I love this country and honestly tried my   case you missed it, Fergie took on the honor of opening the yearly basketball game with her unique version of the \"Star-Spangled Banner,\" which resulted in tons of backlash from viewers and Twitter users alike.\nIn fact, some people went as far as dubbing it the \"worst rendition ever\" performed, while stars like Chance the Rapper, Joel Embiid, Draymond Green and Jimmy Kimmel were spotted on-camera throughout the performance, unable to control their facial expressions while  Roseanne Barr—who previously held the title for the worst \"Star-Spangled Banner\" performance—dissed Fergie. \n\"Who saw Fergie's national anthem performance at the NBA All Star Game?\" she asked her followers. \"I think mine was better lowkey.\"\nWhat did you think of Fergies performance? Sound off in the comments below.\n"
}